…
``` r
my_layout <- import_layout_from_excel(file = my_file, meta_row = c(concentration = "1"))

my_layout
#> # A tibble: 384 x 5
#>    well  well_let well_num content    concentration
#>    <chr> <chr>    <chr>    <chr>      <chr>        
#>  1 A01   A        01       Compound 1 100          
#>  2 A02   A        02       Compound 1 50           
#>  3 A03   A        03       Compound 1 25           
#>  4 A04   A        04       Compound 1 10           
#>  5 A05   A        05       Compound 1 5            
#>  6 A06   A        06       Compound 1 0            
#>  7 A07   A        07       Compound 2 100          
#>  8 A08   A        08       Compound 2 50           
#>  9 A09   A        09       Compound 2 25           
#> 10 A10   A        10       Compound 2 10           
#> # … with 374 more rows
…
